^C:\USERS\MATIAS\DESKTOP\REPASO PARCIAL\TP3-1\FECHA.CPP|C:\USERS\MATIAS\DESKTOP\REPASO PARCIAL\TP3-1\PELICULA.CPP|C:\USERS\MATIAS\DESKTOP\REPASO PARCIAL\TP3-1\TP3-1.CPP
C:\USERS\MATIAS\DESKTOP\REPASO PARCIAL\TP3-1\DEBUG\VC142.PDB
C:\USERS\MATIAS\DESKTOP\REPASO PARCIAL\TP3-1\DEBUG\VC142.IDB
C:\USERS\MATIAS\DESKTOP\REPASO PARCIAL\TP3-1\DEBUG\TP3-1.OBJ
C:\USERS\MATIAS\DESKTOP\REPASO PARCIAL\TP3-1\DEBUG\PELICULA.OBJ
C:\USERS\MATIAS\DESKTOP\REPASO PARCIAL\TP3-1\DEBUG\FECHA.OBJ
^C:\USERS\MATIAS\DESKTOP\REPASO PARCIAL\TP3-1\FECHA.CPP
C:\USERS\MATIAS\DESKTOP\REPASO PARCIAL\TP3-1\DEBUG\VC142.PDB
^C:\USERS\MATIAS\DESKTOP\REPASO PARCIAL\TP3-1\PELICULA.CPP|C:\USERS\MATIAS\DESKTOP\REPASO PARCIAL\TP3-1\TP3-1.CPP
C:\USERS\MATIAS\DESKTOP\REPASO PARCIAL\TP3-1\DEBUG\VC142.PDB
C:\USERS\MATIAS\DESKTOP\REPASO PARCIAL\TP3-1\DEBUG\VC142.IDB
C:\USERS\MATIAS\DESKTOP\REPASO PARCIAL\TP3-1\DEBUG\TP3-1.OBJ
C:\USERS\MATIAS\DESKTOP\REPASO PARCIAL\TP3-1\DEBUG\PELICULA.OBJ
^C:\USERS\MATIAS\DESKTOP\REPASO PARCIAL\TP3-1\PELICULA.CPP
C:\USERS\MATIAS\DESKTOP\REPASO PARCIAL\TP3-1\DEBUG\VC142.PDB
^C:\USERS\MATIAS\DESKTOP\REPASO PARCIAL\TP3-1\TP3-1.CPP
C:\USERS\MATIAS\DESKTOP\REPASO PARCIAL\TP3-1\DEBUG\VC142.PDB
