^C:\USERS\MATIAS\DESKTOP\REPASO PARCIAL\TP2\DEBUG\PELICULA.OBJ|C:\USERS\MATIAS\DESKTOP\REPASO PARCIAL\TP2\DEBUG\TP2.OBJ
C:\USERS\MATIAS\DESKTOP\REPASO PARCIAL\TP2\DEBUG\TP2.EXE
C:\USERS\MATIAS\DESKTOP\REPASO PARCIAL\TP2\DEBUG\TP2.ILK
C:\USERS\MATIAS\DESKTOP\REPASO PARCIAL\TP2\DEBUG\TP2.PDB
