^C:\USERS\MATIAS\DESKTOP\REPASO PARCIAL\TP2-3\DEBUG\TP2-3.OBJ|C:\USERS\MATIAS\DESKTOP\REPASO PARCIAL\TP2-3\DEBUG\VECTOR.OBJ
C:\USERS\MATIAS\DESKTOP\REPASO PARCIAL\TP2-3\DEBUG\TP2-3.EXE
C:\USERS\MATIAS\DESKTOP\REPASO PARCIAL\TP2-3\DEBUG\TP2-3.ILK
C:\USERS\MATIAS\DESKTOP\REPASO PARCIAL\TP2-3\DEBUG\TP2-3.PDB
