^C:\USERS\MATIAS\DESKTOP\REPASO PARCIAL\TP3-2\FECHA.CPP|C:\USERS\MATIAS\DESKTOP\REPASO PARCIAL\TP3-2\PRODUCTO.CPP|C:\USERS\MATIAS\DESKTOP\REPASO PARCIAL\TP3-2\RENGLON.CPP|C:\USERS\MATIAS\DESKTOP\REPASO PARCIAL\TP3-2\TP3-2.CPP
C:\USERS\MATIAS\DESKTOP\REPASO PARCIAL\TP3-2\DEBUG\VC142.PDB
C:\USERS\MATIAS\DESKTOP\REPASO PARCIAL\TP3-2\DEBUG\VC142.IDB
C:\USERS\MATIAS\DESKTOP\REPASO PARCIAL\TP3-2\DEBUG\TP3-2.OBJ
C:\USERS\MATIAS\DESKTOP\REPASO PARCIAL\TP3-2\DEBUG\RENGLON.OBJ
C:\USERS\MATIAS\DESKTOP\REPASO PARCIAL\TP3-2\DEBUG\PRODUCTO.OBJ
C:\USERS\MATIAS\DESKTOP\REPASO PARCIAL\TP3-2\DEBUG\FECHA.OBJ
^C:\USERS\MATIAS\DESKTOP\REPASO PARCIAL\TP3-2\FECHA.CPP
C:\USERS\MATIAS\DESKTOP\REPASO PARCIAL\TP3-2\DEBUG\VC142.PDB
^C:\USERS\MATIAS\DESKTOP\REPASO PARCIAL\TP3-2\PRODUCTO.CPP
C:\USERS\MATIAS\DESKTOP\REPASO PARCIAL\TP3-2\DEBUG\VC142.PDB
^C:\USERS\MATIAS\DESKTOP\REPASO PARCIAL\TP3-2\RENGLON.CPP
C:\USERS\MATIAS\DESKTOP\REPASO PARCIAL\TP3-2\DEBUG\VC142.PDB
^C:\USERS\MATIAS\DESKTOP\REPASO PARCIAL\TP3-2\FACTURA.CPP|C:\USERS\MATIAS\DESKTOP\REPASO PARCIAL\TP3-2\TP3-2.CPP
C:\USERS\MATIAS\DESKTOP\REPASO PARCIAL\TP3-2\DEBUG\VC142.PDB
C:\USERS\MATIAS\DESKTOP\REPASO PARCIAL\TP3-2\DEBUG\VC142.IDB
C:\USERS\MATIAS\DESKTOP\REPASO PARCIAL\TP3-2\DEBUG\TP3-2.OBJ
^C:\USERS\MATIAS\DESKTOP\REPASO PARCIAL\TP3-2\TP3-2.CPP
C:\USERS\MATIAS\DESKTOP\REPASO PARCIAL\TP3-2\DEBUG\TP3-2.OBJ
^C:\USERS\MATIAS\DESKTOP\REPASO PARCIAL\TP3-2\FACTURA.CPP
C:\USERS\MATIAS\DESKTOP\REPASO PARCIAL\TP3-2\DEBUG\VC142.PDB
C:\USERS\MATIAS\DESKTOP\REPASO PARCIAL\TP3-2\DEBUG\VC142.IDB
C:\USERS\MATIAS\DESKTOP\REPASO PARCIAL\TP3-2\DEBUG\FACTURA.OBJ
^C:\USERS\MATIAS\DESKTOP\REPOPERSONAL\TP3-2\FACTURA.CPP|C:\USERS\MATIAS\DESKTOP\REPOPERSONAL\TP3-2\FECHA.CPP|C:\USERS\MATIAS\DESKTOP\REPOPERSONAL\TP3-2\PRODUCTO.CPP|C:\USERS\MATIAS\DESKTOP\REPOPERSONAL\TP3-2\RENGLON.CPP|C:\USERS\MATIAS\DESKTOP\REPOPERSONAL\TP3-2\TP3-2.CPP
C:\USERS\MATIAS\DESKTOP\REPOPERSONAL\TP3-2\DEBUG\VC142.PDB
C:\USERS\MATIAS\DESKTOP\REPOPERSONAL\TP3-2\DEBUG\VC142.IDB
C:\USERS\MATIAS\DESKTOP\REPOPERSONAL\TP3-2\DEBUG\TP3-2.OBJ
C:\USERS\MATIAS\DESKTOP\REPOPERSONAL\TP3-2\DEBUG\RENGLON.OBJ
C:\USERS\MATIAS\DESKTOP\REPOPERSONAL\TP3-2\DEBUG\PRODUCTO.OBJ
C:\USERS\MATIAS\DESKTOP\REPOPERSONAL\TP3-2\DEBUG\FECHA.OBJ
C:\USERS\MATIAS\DESKTOP\REPOPERSONAL\TP3-2\DEBUG\FACTURA.OBJ
^C:\USERS\MATIAS\DESKTOP\REPOPERSONAL\TP3-2\FECHA.CPP
C:\USERS\MATIAS\DESKTOP\REPOPERSONAL\TP3-2\DEBUG\VC142.PDB
^C:\USERS\MATIAS\DESKTOP\REPOPERSONAL\TP3-2\PRODUCTO.CPP
C:\USERS\MATIAS\DESKTOP\REPOPERSONAL\TP3-2\DEBUG\VC142.PDB
^C:\USERS\MATIAS\DESKTOP\REPOPERSONAL\TP3-2\RENGLON.CPP
C:\USERS\MATIAS\DESKTOP\REPOPERSONAL\TP3-2\DEBUG\VC142.PDB
^C:\USERS\MATIAS\DESKTOP\REPOPERSONAL\TP3-2\FACTURA.CPP
C:\USERS\MATIAS\DESKTOP\REPOPERSONAL\TP3-2\DEBUG\VC142.PDB
C:\USERS\MATIAS\DESKTOP\REPOPERSONAL\TP3-2\DEBUG\VC142.IDB
C:\USERS\MATIAS\DESKTOP\REPOPERSONAL\TP3-2\DEBUG\FACTURA.OBJ
^C:\USERS\MATIAS\DESKTOP\REPOPERSONAL\TP3-2\TP3-2.CPP
C:\USERS\MATIAS\DESKTOP\REPOPERSONAL\TP3-2\DEBUG\VC142.PDB
C:\USERS\MATIAS\DESKTOP\REPOPERSONAL\TP3-2\DEBUG\VC142.IDB
C:\USERS\MATIAS\DESKTOP\REPOPERSONAL\TP3-2\DEBUG\TP3-2.OBJ
